<?xml version="1.0" encoding="utf-8"?>
<!-- Generator: Adobe Illustrator 17.0.0, SVG Export Plug-In . SVG Version: 6.00 Build 0)  -->
<!DOCTYPE svg PUBLIC "-//W3C//DTD SVG 1.1//EN" "http://www.w3.org/Graphics/SVG/1.1/DTD/svg11.dtd">
<svg version="1.1" id="Layer_1" xmlns="http://www.w3.org/2000/svg" xmlns:xlink="http://www.w3.org/1999/xlink" x="0px" y="0px"
	 width="612px" height="792px" viewBox="0 0 612 792" enable-background="new 0 0 612 792" xml:space="preserve">
<title>down</title>
<path fill="#FFC200" d="M275.107,357.637l-31.354-31.253c-1.712-1.82-1.712-4.603,0-6.315c1.757-1.712,4.558-1.712,6.315,0
	l28.15,28.15l28.15-28.15c1.82-1.712,4.603-1.712,6.315,0c1.712,1.712,1.712,4.496,0,6.315l-31.255,31.253
	C279.609,359.35,276.827,359.35,275.107,357.637z"/>
</svg>
